{
    "fuck":"stop fucking cursing!",
    "ass":"stop cursing you asshole!",
    "jackass":"stop cursing you jack ass!",
    "shit":"stop cursing you piece of shit!",
    "dick":"stop cursing you slightly unpleasant person",
    "close":"I hope you'll stop fucking cursing now you asshole"
}